{
  "development": {
    "username": "root",
    "password": "root",
    "database": "huboficeandfire",
    "host": "db",
    "dialect": "postgres"
  },
  "test": {
    "username": "root",
    "password": "root",
    "database": "huboficeandfire",
    "host": "db",
    "dialect": "postgres"
  },
  "production": {
    "username": "root",
    "password": "root",
    "database": "huboficeandfire",
    "host": "db",
    "dialect": "postgres"
  }
}
